{
    "page": 2,
    "limit": 1,
    "pages": 3,
    "total": 3,
    "_links": {
        "self": {
            "href": "\/api\/v1\/brands\/setono\/images\/?page=2&limit=1"
        },
        "first": {
            "href": "\/api\/v1\/brands\/setono\/images\/?page=1&limit=1"
        },
        "last": {
            "href": "\/api\/v1\/brands\/setono\/images\/?page=3&limit=1"
        },
        "next": {
            "href": "\/api\/v1\/brands\/setono\/images\/?page=3&limit=1"
        },
        "previous": {
            "href": "\/api\/v1\/brands\/setono\/images\/?page=1&limit=1"
        }
    },
    "_embedded": {
        "items": [
            {
                "id": "@integer@",
                "path": "\/setono-etc.jpg",
                "_links": {
                    "self": {
                        "href": "@string@.startsWith('/api/v1/brands/setono/images/')"
                    }
                }
            }
        ]
    }
}
